{
  "elements": [
    {
      "element": {
        "element_type": "structure_gel:gel_single_pool_element",
        "location": "dungeons_plus:end_ruins/tower/block_pile_2",
        "processors": "minecraft:empty",
        "projection": "rigid"
      },
      "weight": 2
    },
    {
      "element": {
        "element_type": "structure_gel:gel_single_pool_element",
        "location": "dungeons_plus:end_ruins/tower/block_pile_1",
        "processors": "minecraft:empty",
        "projection": "rigid"
      },
      "weight": 2
    },
    {
      "element": {
        "element_type": "structure_gel:gel_single_pool_element",
        "location": "dungeons_plus:end_ruins/tower/block_pile_4",
        "processors": "minecraft:empty",
        "projection": "rigid"
      },
      "weight": 1
    },
    {
      "element": {
        "element_type": "structure_gel:gel_single_pool_element",
        "location": "dungeons_plus:end_ruins/tower/block_pile_3",
        "processors": "minecraft:empty",
        "projection": "rigid"
      },
      "weight": 2
    }
  ],
  "fallback": "minecraft:empty"
}