{
	"required": true,
	"package": "com.legacy.dungeons_plus.mixin",
	"compatibilityLevel": "JAVA_17",
	"refmap": "dungeons_plus.refmap.json",
	"mixins": [
	],
	"client": [
		"LevelRendererMixin"
	],
	"injectors": {
		"defaultRequire": 1
	},
	"minVersion": "0.8"
}