{
  "type": "dungeons_plus:soul_prison",
  "biomes": "#dungeons_plus:has_structure/has_soul_prison",
  "spawn_overrides": {
    "monster": {
      "bounding_box": "piece",
      "spawns": [
        {
          "type": "minecraft:skeleton",
          "maxCount": 4,
          "minCount": 1,
          "weight": 5
        },
        {
          "type": "minecraft:ghast",
          "maxCount": 2,
          "minCount": 1,
          "weight": 1
        }
      ]
    }
  },
  "step": "surface_structures"
}