{
  "type": "structure_gel:extended_jigsaw",
  "biomes": "#dungeons_plus:has_structure/has_warped_garden",
  "capability": {
    "type": "dungeons_plus:warped_garden"
  },
  "max_distance_from_center": 80,
  "size": 4,
  "spawn_overrides": {
    "monster": {
      "bounding_box": "piece",
      "spawns": [
        {
          "type": "minecraft:drowned",
          "maxCount": 4,
          "minCount": 1,
          "weight": 1
        }
      ]
    }
  },
  "start_height": {
    "absolute": 36
  },
  "start_pool": "dungeons_plus:warped_garden/root",
  "step": "surface_structures",
  "use_expansion_hack": false
}