{
  "parent": "dungeons_plus:adventure/find_reanimated_ruins",
  "criteria": {
    "in_structure": {
      "conditions": {
        "player": [
          {
            "condition": "minecraft:entity_properties",
            "entity": "this",
            "predicate": {
              "location": {
                "structure": "dungeons_plus:snowy_temple"
              }
            }
          }
        ]
      },
      "trigger": "minecraft:location"
    }
  },
  "display": {
    "description": {
      "translate": "dungeons_plus:advancements.adventure.find_snowy_temple.description"
    },
    "frame": "goal",
    "icon": {
      "item": "minecraft:packed_ice"
    },
    "title": {
      "translate": "dungeons_plus:advancements.adventure.find_snowy_temple.title"
    }
  },
  "requirements": [
    [
      "in_structure"
    ]
  ],
  "sends_telemetry_event": true
}