{
  "elements": [
    {
      "element": {
        "element_type": "structure_gel:gel_single_pool_element",
        "location": "dungeons_plus:reanimated_ruins/terminator/1",
        "maintainWater": false,
        "processors": "minecraft:empty",
        "projection": "rigid"
      },
      "weight": 1
    },
    {
      "element": {
        "element_type": "structure_gel:gel_single_pool_element",
        "location": "dungeons_plus:reanimated_ruins/terminator/0",
        "maintainWater": false,
        "processors": "minecraft:empty",
        "projection": "rigid"
      },
      "weight": 1
    }
  ],
  "fallback": "minecraft:empty"
}