{
  "type": "minecraft:chest",
  "pools": [
    {
      "bonus_rolls": 0.0,
      "entries": [
        {
          "type": "minecraft:item",
          "functions": [
            {
              "decoration": "red_x",
              "destination": "dungeons_plus:on_warped_garden_maps",
              "function": "minecraft:exploration_map",
              "skip_existing_chunks": false,
              "zoom": 1
            },
            {
              "function": "minecraft:set_name",
              "name": {
                "translate": "filled_map.dungeons_plus:warped_garden"
              }
            }
          ],
          "name": "minecraft:map"
        }
      ],
      "rolls": 1.0
    },
    {
      "bonus_rolls": 0.0,
      "entries": [
        {
          "type": "minecraft:loot_table",
          "name": "dungeons_plus:chests/reanimated_ruins/mossy"
        }
      ],
      "rolls": 1.0
    }
  ],
  "random_sequence": "dungeons_plus:chests/reanimated_ruins/mossy_map"
}