{
	"item.soul_cannon.shoot": {
		"category": "player",
		"subtitle": "subtitles.dungeons_plus.item.soul_cannon.shoot",
		"sounds": [
			{
				"name": "entity.ghast.shoot",
				"type": "event"
			}
		]
	},
	"item.warped_axe.throw": {
		"category": "player",
		"subtitle": "subtitles.dungeons_plus.item.warped_axe.throw",
		"sounds": [
			"dungeons_plus:warped_axe/throw_0",
			"dungeons_plus:warped_axe/throw_1"
		]
	},
	"item.warped_axe.land": {
		"category": "player",
		"subtitle": "subtitles.dungeons_plus.item.warped_axe.land",
		"sounds": [
			"dungeons_plus:warped_axe/land_0",
			"dungeons_plus:warped_axe/land_1",
			"dungeons_plus:warped_axe/land_2",
			"dungeons_plus:warped_axe/land_3"
		]
	},
	"item.warped_axe.hit": {
		"category": "player",
		"subtitle": "subtitles.dungeons_plus.item.warped_axe.hit",
		"sounds": [
			{
				"name": "entity.player.attack.crit",
				"type": "event"
			}
		]
	},
	"item.warped_axe.return": {
		"category": "player",
		"subtitle": "subtitles.dungeons_plus.item.warped_axe.return",
		"sounds": [
			{
				"name": "item.trident.return",
				"type": "event"
			}
		]
	},
	"item.warped_axe.teleport": {
		"category": "player",
		"subtitle": "subtitles.dungeons_plus.item.warped_axe.teleport",
		"sounds": [
			{
				"name": "item.chorus_fruit.teleport",
				"type": "event"
			}
		]
	}
}