{
  "type": "minecraft:entity",
  "pools": [
    {
      "bonus_rolls": 0.0,
      "conditions": [
        {
          "chance": 0.5,
          "condition": "minecraft:random_chance"
        }
      ],
      "entries": [
        {
          "type": "minecraft:loot_table",
          "name": "minecraft:entities/spider"
        }
      ],
      "rolls": 1.0
    }
  ],
  "random_sequence": "dungeons_plus:entities/tower/spider"
}