{
  "elements": [
    {
      "element": {
        "element_type": "structure_gel:gel_single_pool_element",
        "location": "dungeons_plus:leviathan/temple/pillar/broken",
        "maintainWater": false,
        "processors": "dungeons_plus:leviathan_archaeology",
        "projection": "rigid"
      },
      "weight": 1
    },
    {
      "element": {
        "element_type": "structure_gel:gel_single_pool_element",
        "location": "dungeons_plus:leviathan/temple/pillar/cracked",
        "maintainWater": false,
        "processors": "dungeons_plus:leviathan_archaeology",
        "projection": "rigid"
      },
      "weight": 3
    },
    {
      "element": {
        "element_type": "structure_gel:gel_single_pool_element",
        "location": "dungeons_plus:leviathan/temple/pillar/damaged",
        "maintainWater": false,
        "processors": "dungeons_plus:leviathan_archaeology",
        "projection": "rigid"
      },
      "weight": 2
    },
    {
      "element": {
        "element_type": "structure_gel:gel_single_pool_element",
        "location": "dungeons_plus:leviathan/temple/pillar/intact",
        "maintainWater": false,
        "processors": "dungeons_plus:leviathan_archaeology",
        "projection": "rigid"
      },
      "weight": 5
    }
  ],
  "fallback": "minecraft:empty"
}