{
  "elements": [
    {
      "element": {
        "element_type": "structure_gel:gel_single_pool_element",
        "location": "dungeons_plus:leviathan/temple/side_room/right/2",
        "maintainWater": false,
        "processors": "dungeons_plus:leviathan_archaeology",
        "projection": "rigid"
      },
      "weight": 1
    },
    {
      "element": {
        "element_type": "structure_gel:gel_single_pool_element",
        "location": "dungeons_plus:leviathan/temple/side_room/right/3",
        "maintainWater": false,
        "processors": "dungeons_plus:leviathan_archaeology",
        "projection": "rigid"
      },
      "weight": 1
    },
    {
      "element": {
        "element_type": "structure_gel:gel_single_pool_element",
        "location": "dungeons_plus:leviathan/temple/side_room/right/0",
        "maintainWater": false,
        "processors": "dungeons_plus:leviathan_archaeology",
        "projection": "rigid"
      },
      "weight": 1
    },
    {
      "element": {
        "element_type": "structure_gel:gel_single_pool_element",
        "location": "dungeons_plus:leviathan/temple/side_room/right/1",
        "maintainWater": false,
        "processors": "dungeons_plus:leviathan_archaeology",
        "projection": "rigid"
      },
      "weight": 1
    },
    {
      "element": {
        "element_type": "structure_gel:gel_single_pool_element",
        "location": "dungeons_plus:leviathan/temple/side_room/right/4",
        "maintainWater": false,
        "processors": "dungeons_plus:leviathan_archaeology",
        "projection": "rigid"
      },
      "weight": 1
    }
  ],
  "fallback": "minecraft:empty"
}